<?xml version="1.0" encoding="UTF-8"?>
<!DOCTYPE svg PUBLIC '-//W3C//DTD SVG 1.0//EN'
          'http://www.w3.org/TR/2001/REC-SVG-20010904/DTD/svg10.dtd'>
<svg fill-opacity="1" xmlns:xlink="http://www.w3.org/1999/xlink" color-rendering="auto" color-interpolation="auto" stroke="black" text-rendering="auto" stroke-linecap="square" width="990" stroke-miterlimit="10" stroke-opacity="1" shape-rendering="auto" fill="black" stroke-dasharray="none" font-weight="normal" stroke-width="1" viewBox="140 220 990 600" height="600" xmlns="http://www.w3.org/2000/svg" font-family="&apos;Dialog&apos;" font-style="normal" stroke-linejoin="miter" font-size="12" stroke-dashoffset="0" image-rendering="auto"
><!--Generated by the Batik Graphics2D SVG Generator--><defs id="genericDefs"
  /><g
  ><g font-family="sans-serif" font-size="14" transform="translate(440,410)"
    ><text x="42" xml:space="preserve" y="17" stroke="none"
      >ESB</text
      ><line y2="0" fill="none" x1="14" x2="189" y1="0"
      /><line y2="69" fill="none" x1="14" x2="189" y1="69"
      /><line y2="14" fill="none" x1="14" x2="14" y1="0"
      /><line y2="42" fill="none" x1="14" x2="14" y1="28"
      /><line y2="69" fill="none" x1="14" x2="14" y1="56"
      /><line y2="69" fill="none" x1="189" x2="189" y1="0"
      /><line y2="14" fill="none" x1="0" x2="28" y1="14"
      /><line y2="28" fill="none" x1="0" x2="28" y1="28"
      /><line y2="28" fill="none" x1="0" x2="0" y1="14"
      /><line y2="28" fill="none" x1="28" x2="28" y1="14"
      /><line y2="42" fill="none" x1="0" x2="28" y1="42"
      /><line y2="56" fill="none" x1="0" x2="28" y1="56"
      /><line y2="56" fill="none" x1="0" x2="0" y1="42"
      /><line y2="56" fill="none" x1="28" x2="28" y1="42"
      /><text x="42" xml:space="preserve" y="17" transform="translate(240,-170)" stroke="none"
      >Komunikacja </text
      ><text x="42" xml:space="preserve" y="34" transform="translate(240,-170)" stroke="none"
      >z BSS</text
      ><line y2="0" fill="none" x1="14" x2="189" transform="translate(240,-170)" y1="0"
      /><line y2="69" fill="none" x1="14" x2="189" transform="translate(240,-170)" y1="69"
      /><line y2="14" fill="none" x1="14" x2="14" transform="translate(240,-170)" y1="0"
      /><line y2="42" fill="none" x1="14" x2="14" transform="translate(240,-170)" y1="28"
      /><line y2="69" fill="none" x1="14" x2="14" transform="translate(240,-170)" y1="56"
      /><line y2="69" fill="none" x1="189" x2="189" transform="translate(240,-170)" y1="0"
      /><line y2="14" fill="none" x1="0" x2="28" transform="translate(240,-170)" y1="14"
      /><line y2="28" fill="none" x1="0" x2="28" transform="translate(240,-170)" y1="28"
      /><line y2="28" fill="none" x1="0" x2="0" transform="translate(240,-170)" y1="14"
      /><line y2="28" fill="none" x1="28" x2="28" transform="translate(240,-170)" y1="14"
      /><line y2="42" fill="none" x1="0" x2="28" transform="translate(240,-170)" y1="42"
      /><line y2="56" fill="none" x1="0" x2="28" transform="translate(240,-170)" y1="56"
      /><line y2="56" fill="none" x1="0" x2="0" transform="translate(240,-170)" y1="42"
      /><line y2="56" fill="none" x1="28" x2="28" transform="translate(240,-170)" y1="42"
      /><text x="42" xml:space="preserve" y="17" transform="translate(380,-50)" stroke="none"
      >Routowanie </text
      ><text x="42" xml:space="preserve" y="34" transform="translate(380,-50)" stroke="none"
      >komuikatów</text
      ><line y2="0" fill="none" x1="14" x2="189" transform="translate(380,-50)" y1="0"
      /><line y2="69" fill="none" x1="14" x2="189" transform="translate(380,-50)" y1="69"
      /><line y2="14" fill="none" x1="14" x2="14" transform="translate(380,-50)" y1="0"
      /><line y2="42" fill="none" x1="14" x2="14" transform="translate(380,-50)" y1="28"
      /><line y2="69" fill="none" x1="14" x2="14" transform="translate(380,-50)" y1="56"
      /><line y2="69" fill="none" x1="189" x2="189" transform="translate(380,-50)" y1="0"
      /><line y2="14" fill="none" x1="0" x2="28" transform="translate(380,-50)" y1="14"
      /><line y2="28" fill="none" x1="0" x2="28" transform="translate(380,-50)" y1="28"
      /><line y2="28" fill="none" x1="0" x2="0" transform="translate(380,-50)" y1="14"
      /><line y2="28" fill="none" x1="28" x2="28" transform="translate(380,-50)" y1="14"
      /><line y2="42" fill="none" x1="0" x2="28" transform="translate(380,-50)" y1="42"
      /><line y2="56" fill="none" x1="0" x2="28" transform="translate(380,-50)" y1="56"
      /><line y2="56" fill="none" x1="0" x2="0" transform="translate(380,-50)" y1="42"
      /><line y2="56" fill="none" x1="28" x2="28" transform="translate(380,-50)" y1="42"
      /><text x="42" xml:space="preserve" y="17" transform="translate(370,60)" stroke="none"
      >SMSy premium</text
      ><line y2="0" fill="none" x1="14" x2="189" transform="translate(370,60)" y1="0"
      /><line y2="69" fill="none" x1="14" x2="189" transform="translate(370,60)" y1="69"
      /><line y2="14" fill="none" x1="14" x2="14" transform="translate(370,60)" y1="0"
      /><line y2="42" fill="none" x1="14" x2="14" transform="translate(370,60)" y1="28"
      /><line y2="69" fill="none" x1="14" x2="14" transform="translate(370,60)" y1="56"
      /><line y2="69" fill="none" x1="189" x2="189" transform="translate(370,60)" y1="0"
      /><line y2="14" fill="none" x1="0" x2="28" transform="translate(370,60)" y1="14"
      /><line y2="28" fill="none" x1="0" x2="28" transform="translate(370,60)" y1="28"
      /><line y2="28" fill="none" x1="0" x2="0" transform="translate(370,60)" y1="14"
      /><line y2="28" fill="none" x1="28" x2="28" transform="translate(370,60)" y1="14"
      /><line y2="42" fill="none" x1="0" x2="28" transform="translate(370,60)" y1="42"
      /><line y2="56" fill="none" x1="0" x2="28" transform="translate(370,60)" y1="56"
      /><line y2="56" fill="none" x1="0" x2="0" transform="translate(370,60)" y1="42"
      /><line y2="56" fill="none" x1="28" x2="28" transform="translate(370,60)" y1="42"
      /><text x="42" xml:space="preserve" y="17" transform="translate(-220,200)" stroke="none"
      >Billing</text
      ><line y2="0" fill="none" x1="14" x2="189" transform="translate(-220,200)" y1="0"
      /><line y2="69" fill="none" x1="14" x2="189" transform="translate(-220,200)" y1="69"
      /><line y2="14" fill="none" x1="14" x2="14" transform="translate(-220,200)" y1="0"
      /><line y2="42" fill="none" x1="14" x2="14" transform="translate(-220,200)" y1="28"
      /><line y2="69" fill="none" x1="14" x2="14" transform="translate(-220,200)" y1="56"
      /><line y2="69" fill="none" x1="189" x2="189" transform="translate(-220,200)" y1="0"
      /><line y2="14" fill="none" x1="0" x2="28" transform="translate(-220,200)" y1="14"
      /><line y2="28" fill="none" x1="0" x2="28" transform="translate(-220,200)" y1="28"
      /><line y2="28" fill="none" x1="0" x2="0" transform="translate(-220,200)" y1="14"
      /><line y2="28" fill="none" x1="28" x2="28" transform="translate(-220,200)" y1="14"
      /><line y2="42" fill="none" x1="0" x2="28" transform="translate(-220,200)" y1="42"
      /><line y2="56" fill="none" x1="0" x2="28" transform="translate(-220,200)" y1="56"
      /><line y2="56" fill="none" x1="0" x2="0" transform="translate(-220,200)" y1="42"
      /><line y2="56" fill="none" x1="28" x2="28" transform="translate(-220,200)" y1="42"
      /><text x="42" xml:space="preserve" y="17" transform="translate(220,200)" stroke="none"
      >Wysyłanie smsów </text
      ><text x="42" xml:space="preserve" y="34" transform="translate(220,200)" stroke="none"
      >do odbiorców</text
      ><line y2="0" fill="none" x1="14" x2="189" transform="translate(220,200)" y1="0"
      /><line y2="69" fill="none" x1="14" x2="189" transform="translate(220,200)" y1="69"
      /><line y2="14" fill="none" x1="14" x2="14" transform="translate(220,200)" y1="0"
      /><line y2="42" fill="none" x1="14" x2="14" transform="translate(220,200)" y1="28"
      /><line y2="69" fill="none" x1="14" x2="14" transform="translate(220,200)" y1="56"
      /><line y2="69" fill="none" x1="189" x2="189" transform="translate(220,200)" y1="0"
      /><line y2="14" fill="none" x1="0" x2="28" transform="translate(220,200)" y1="14"
      /><line y2="28" fill="none" x1="0" x2="28" transform="translate(220,200)" y1="28"
      /><line y2="28" fill="none" x1="0" x2="0" transform="translate(220,200)" y1="14"
      /><line y2="28" fill="none" x1="28" x2="28" transform="translate(220,200)" y1="14"
      /><line y2="42" fill="none" x1="0" x2="28" transform="translate(220,200)" y1="42"
      /><line y2="56" fill="none" x1="0" x2="28" transform="translate(220,200)" y1="56"
      /><line y2="56" fill="none" x1="0" x2="0" transform="translate(220,200)" y1="42"
      /><line y2="56" fill="none" x1="28" x2="28" transform="translate(220,200)" y1="42"
      /><text x="42" xml:space="preserve" y="17" transform="translate(-280,-130)" stroke="none"
      >Fakturowanie</text
      ><line y2="0" fill="none" x1="14" x2="189" transform="translate(-280,-130)" y1="0"
      /><line y2="69" fill="none" x1="14" x2="189" transform="translate(-280,-130)" y1="69"
      /><line y2="14" fill="none" x1="14" x2="14" transform="translate(-280,-130)" y1="0"
      /><line y2="42" fill="none" x1="14" x2="14" transform="translate(-280,-130)" y1="28"
      /><line y2="69" fill="none" x1="14" x2="14" transform="translate(-280,-130)" y1="56"
      /><line y2="69" fill="none" x1="189" x2="189" transform="translate(-280,-130)" y1="0"
      /><line y2="14" fill="none" x1="0" x2="28" transform="translate(-280,-130)" y1="14"
      /><line y2="28" fill="none" x1="0" x2="28" transform="translate(-280,-130)" y1="28"
      /><line y2="28" fill="none" x1="0" x2="0" transform="translate(-280,-130)" y1="14"
      /><line y2="28" fill="none" x1="28" x2="28" transform="translate(-280,-130)" y1="14"
      /><line y2="42" fill="none" x1="0" x2="28" transform="translate(-280,-130)" y1="42"
      /><line y2="56" fill="none" x1="0" x2="28" transform="translate(-280,-130)" y1="56"
      /><line y2="56" fill="none" x1="0" x2="0" transform="translate(-280,-130)" y1="42"
      /><line y2="56" fill="none" x1="28" x2="28" transform="translate(-280,-130)" y1="42"
      /><text x="42" xml:space="preserve" y="17" transform="translate(480,220)" stroke="none"
      >System dotPay</text
      ><line y2="0" fill="none" x1="14" x2="189" transform="translate(480,220)" y1="0"
      /><line y2="69" fill="none" x1="14" x2="189" transform="translate(480,220)" y1="69"
      /><line y2="14" fill="none" x1="14" x2="14" transform="translate(480,220)" y1="0"
      /><line y2="42" fill="none" x1="14" x2="14" transform="translate(480,220)" y1="28"
      /><line y2="69" fill="none" x1="14" x2="14" transform="translate(480,220)" y1="56"
      /><line y2="69" fill="none" x1="189" x2="189" transform="translate(480,220)" y1="0"
      /><line y2="14" fill="none" x1="0" x2="28" transform="translate(480,220)" y1="14"
      /><line y2="28" fill="none" x1="0" x2="28" transform="translate(480,220)" y1="28"
      /><line y2="28" fill="none" x1="0" x2="0" transform="translate(480,220)" y1="14"
      /><line y2="28" fill="none" x1="28" x2="28" transform="translate(480,220)" y1="14"
      /><line y2="42" fill="none" x1="0" x2="28" transform="translate(480,220)" y1="42"
      /><line y2="56" fill="none" x1="0" x2="28" transform="translate(480,220)" y1="56"
      /><line y2="56" fill="none" x1="0" x2="0" transform="translate(480,220)" y1="42"
      /><line y2="56" fill="none" x1="28" x2="28" transform="translate(480,220)" y1="42"
      /><line y2="70" fill="none" x1="30" x2="85" transform="translate(-120,-110)" y1="30"
      /><line y2="110" fill="none" x1="85" x2="140" transform="translate(-120,-110)" y1="70"
      /><line y2="32" fill="none" x1="30" x2="43" transform="translate(-120,-110)" y1="30"
      /><line y2="42" fill="none" x1="30" x2="36" transform="translate(-120,-110)" y1="30"
      /><polygon fill="white" transform="translate(-120,-110)" points=" 30 30 43 32 36 42" stroke="none"
      /><polygon fill="none" points=" 30 30 43 32 36 42" transform="translate(-120,-110)"
      /><line y2="107" fill="none" x1="139" x2="126" transform="translate(-120,-110)" y1="109"
      /><line y2="97" fill="none" x1="139" x2="133" transform="translate(-120,-110)" y1="109"
      /><polygon fill="white" transform="translate(-120,-110)" points=" 139 109 126 107 133 97" stroke="none"
      /><polygon fill="none" points=" 139 109 126 107 133 97" transform="translate(-120,-110)"
      /><text x="42" xml:space="preserve" y="17" transform="translate(10,-170)" stroke="none"
      >Lokalizacja </text
      ><text x="42" xml:space="preserve" y="34" transform="translate(10,-170)" stroke="none"
      >użytkowników</text
      ><text x="42" xml:space="preserve" y="51" transform="translate(10,-170)" stroke="none"
      >sieci</text
      ><line y2="0" fill="none" x1="14" x2="189" transform="translate(10,-170)" y1="0"
      /><line y2="69" fill="none" x1="14" x2="189" transform="translate(10,-170)" y1="69"
      /><line y2="14" fill="none" x1="14" x2="14" transform="translate(10,-170)" y1="0"
      /><line y2="42" fill="none" x1="14" x2="14" transform="translate(10,-170)" y1="28"
      /><line y2="69" fill="none" x1="14" x2="14" transform="translate(10,-170)" y1="56"
      /><line y2="69" fill="none" x1="189" x2="189" transform="translate(10,-170)" y1="0"
      /><line y2="14" fill="none" x1="0" x2="28" transform="translate(10,-170)" y1="14"
      /><line y2="28" fill="none" x1="0" x2="28" transform="translate(10,-170)" y1="28"
      /><line y2="28" fill="none" x1="0" x2="0" transform="translate(10,-170)" y1="14"
      /><line y2="28" fill="none" x1="28" x2="28" transform="translate(10,-170)" y1="14"
      /><line y2="42" fill="none" x1="0" x2="28" transform="translate(10,-170)" y1="42"
      /><line y2="56" fill="none" x1="0" x2="28" transform="translate(10,-170)" y1="56"
      /><line y2="56" fill="none" x1="0" x2="0" transform="translate(10,-170)" y1="42"
      /><line y2="56" fill="none" x1="28" x2="28" transform="translate(10,-170)" y1="42"
      /><line y2="80" fill="none" x1="30" x2="30" transform="translate(80,-130)" y1="30"
      /><line y2="130" fill="none" x1="30" x2="30" transform="translate(80,-130)" y1="80"
      /><line y2="42" fill="none" x1="30" x2="36" transform="translate(80,-130)" y1="30"
      /><line y2="42" fill="none" x1="30" x2="24" transform="translate(80,-130)" y1="30"
      /><polygon fill="white" transform="translate(80,-130)" points=" 30 30 36 42 24 42" stroke="none"
      /><polygon fill="none" points=" 30 30 36 42 24 42" transform="translate(80,-130)"
      /><line y2="117" fill="none" x1="30" x2="24" transform="translate(80,-130)" y1="129"
      /><line y2="117" fill="none" x1="30" x2="36" transform="translate(80,-130)" y1="129"
      /><polygon fill="white" transform="translate(80,-130)" points=" 30 129 24 117 36 117" stroke="none"
      /><polygon fill="none" points=" 30 129 24 117 36 117" transform="translate(80,-130)"
      /><line y2="95" fill="none" x1="200" x2="115" transform="translate(-140,40)" y1="30"
      /><line y2="160" fill="none" x1="115" x2="30" transform="translate(-140,40)" y1="95"
      /><line y2="42" fill="none" x1="199" x2="193" transform="translate(-140,40)" y1="30"
      /><line y2="32" fill="none" x1="199" x2="186" transform="translate(-140,40)" y1="30"
      /><polygon fill="white" transform="translate(-140,40)" points=" 199 30 193 42 186 32" stroke="none"
      /><polygon fill="none" points=" 199 30 193 42 186 32" transform="translate(-140,40)"
      /><line y2="147" fill="none" x1="30" x2="36" transform="translate(-140,40)" y1="159"
      /><line y2="157" fill="none" x1="30" x2="43" transform="translate(-140,40)" y1="159"
      /><polygon fill="white" transform="translate(-140,40)" points=" 30 159 36 147 43 157" stroke="none"
      /><polygon fill="none" points=" 30 159 36 147 43 157" transform="translate(-140,40)"
      /><line y2="55" fill="none" x1="210" x2="120" transform="translate(160,0)" y1="80"
      /><line y2="30" fill="none" x1="120" x2="30" transform="translate(160,0)" y1="55"
      /><line y2="81" fill="none" x1="209" x2="196" transform="translate(160,0)" y1="79"
      /><line y2="70" fill="none" x1="209" x2="199" transform="translate(160,0)" y1="79"
      /><polygon fill="white" transform="translate(160,0)" points=" 209 79 196 81 199 70" stroke="none"
      /><polygon fill="none" points=" 209 79 196 81 199 70" transform="translate(160,0)"
      /><line y2="28" fill="none" x1="30" x2="43" transform="translate(160,0)" y1="30"
      /><line y2="39" fill="none" x1="30" x2="40" transform="translate(160,0)" y1="30"
      /><polygon fill="white" transform="translate(160,0)" points=" 30 30 43 28 40 39" stroke="none"
      /><polygon fill="none" points=" 30 30 43 28 40 39" transform="translate(160,0)"
      /><line y2="95" fill="none" x1="110" x2="70" transform="translate(160,40)" y1="160"
      /><line y2="30" fill="none" x1="70" x2="30" transform="translate(160,40)" y1="95"
      /><line y2="152" fill="none" x1="109" x2="98" transform="translate(160,40)" y1="159"
      /><line y2="146" fill="none" x1="109" x2="108" transform="translate(160,40)" y1="159"
      /><polygon fill="white" transform="translate(160,40)" points=" 109 159 98 152 108 146" stroke="none"
      /><polygon fill="none" points=" 109 159 98 152 108 146" transform="translate(160,40)"
      /><line y2="37" fill="none" x1="30" x2="41" transform="translate(160,40)" y1="30"
      /><line y2="43" fill="none" x1="30" x2="31" transform="translate(160,40)" y1="30"
      /><polygon fill="white" transform="translate(160,40)" points=" 30 30 41 37 31 43" stroke="none"
      /><polygon fill="none" points=" 30 30 41 37 31 43" transform="translate(160,40)"
      /><line y2="75" fill="none" x1="110" x2="70" transform="translate(450,100)" y1="120"
      /><line y2="30" fill="none" x1="70" x2="30" transform="translate(450,100)" y1="75"
      /><line y2="114" fill="none" x1="109" x2="97" transform="translate(450,100)" y1="119"
      /><line y2="106" fill="none" x1="109" x2="106" transform="translate(450,100)" y1="119"
      /><polygon fill="white" transform="translate(450,100)" points=" 109 119 97 114 106 106" stroke="none"
      /><polygon fill="none" points=" 109 119 97 114 106 106" transform="translate(450,100)"
      /><line y2="45" fill="none" x1="30" x2="130" transform="translate(160,-40)" y1="60"
      /><line y2="30" fill="none" x1="130" x2="230" transform="translate(160,-40)" y1="45"
      /><line y2="51" fill="none" x1="30" x2="41" transform="translate(160,-40)" y1="59"
      /><line y2="63" fill="none" x1="30" x2="43" transform="translate(160,-40)" y1="59"
      /><polygon fill="white" transform="translate(160,-40)" points=" 30 59 41 51 43 63" stroke="none"
      /><polygon fill="none" points=" 30 59 41 51 43 63" transform="translate(160,-40)"
      /><line y2="38" fill="none" x1="229" x2="218" transform="translate(160,-40)" y1="30"
      /><line y2="26" fill="none" x1="229" x2="216" transform="translate(160,-40)" y1="30"
      /><polygon fill="white" transform="translate(160,-40)" points=" 229 30 218 38 216 26" stroke="none"
      /><polygon fill="none" points=" 229 30 218 38 216 26" transform="translate(160,-40)"
      /><line y2="80" fill="none" x1="30" x2="85" transform="translate(160,-130)" y1="130"
      /><line y2="30" fill="none" x1="85" x2="140" transform="translate(160,-130)" y1="80"
      /><line y2="116" fill="none" x1="30" x2="35" transform="translate(160,-130)" y1="129"
      /><line y2="126" fill="none" x1="30" x2="43" transform="translate(160,-130)" y1="129"
      /><polygon fill="white" transform="translate(160,-130)" points=" 30 129 35 116 43 126" stroke="none"
      /><polygon fill="none" points=" 30 129 35 116 43 126" transform="translate(160,-130)"
      /><line y2="43" fill="none" x1="139" x2="134" transform="translate(160,-130)" y1="30"
      /><line y2="33" fill="none" x1="139" x2="126" transform="translate(160,-130)" y1="30"
      /><polygon fill="white" transform="translate(160,-130)" points=" 139 30 134 43 126 33" stroke="none"
      /><polygon fill="none" points=" 139 30 134 43 126 33" transform="translate(160,-130)"
      /><polygon fill="white" transform="translate(80,320)" opacity="0" points=" 0 0 126 0 126 0 139 14 139 14 139 69 139 69 0 69 0 69 0 0" stroke="none"
      /><text x="7" xml:space="preserve" y="17" transform="translate(80,320)" stroke="none"
      >8 połączeń </text
      ><text x="7" xml:space="preserve" y="34" transform="translate(80,320)" stroke="none"
      >między </text
      ><text x="7" xml:space="preserve" y="51" transform="translate(80,320)" stroke="none"
      >systemami</text
      ><line y2="0" fill="none" x1="0" x2="126" transform="translate(80,320)" y1="0"
      /><line y2="14" fill="none" x1="126" x2="139" transform="translate(80,320)" y1="0"
      /><line y2="69" fill="none" x1="139" x2="139" transform="translate(80,320)" y1="14"
      /><line y2="69" fill="none" x1="139" x2="0" transform="translate(80,320)" y1="69"
      /><line y2="0" fill="none" x1="0" x2="0" transform="translate(80,320)" y1="69"
      /><line y2="14" fill="none" x1="126" x2="126" transform="translate(80,320)" y1="0"
      /><line y2="14" fill="none" x1="126" x2="139" transform="translate(80,320)" y1="14"
    /></g
  ></g
></svg
>
